salt,kg,-8.3333333333333E-5,0.1125,-0.41666666666667,1,1
RICE,kg,-0.00027777777777778,0.74166666666667,-1.3888888888889,1,62
Tuvar Daal,kg,-2.7777777777778E-5,0.20416666666667,4.8611111111111,1,
MASOOR DAAL,kg,-4.4444444444444E-5,0.046666666666667,-0.22222222222222,1,
Besan,kg,-5.5555555555556E-5,0.10833333333333,-0.27777777777778,1,19
Ravo,kg,-5.5555555555556E-5,0.088333333333333,-0.27777777777778,1,
Citric Acid,kg,-5.5555555555556E-7,0.0020833333333333,0.097222222222222,0.1,65
Aakhu Jeeru,kg,-8.3333333333333E-6,0.01125,0.45833333333333,0.5,
Taj,kg,-2.7777777777778E-7,0.0010416666666667,0.048611111111111,0.05,34
Lavang,kg,-5.5555555555556E-7,0.0010833333333333,-0.0027777777777778,0.05,36
Elaichi,kg,-5.5555555555556E-7,0.0010833333333333,-0.0027777777777778,0.05,39
KALA MARI,kg,-5.5555555555556E-7,0.0010833333333333,-0.0027777777777778,0.05,37
Baadyaan,kg,-5.5555555555556E-7,0.0010833333333333,-0.0027777777777778,0.05,
TEJ PATTA,kg,-5.5555555555556E-7,0.0010833333333333,-0.0027777777777778,0.05,35
Haldi,kg,-8.3333333333333E-6,0.01125,0.45833333333333,0.5,44
Laal LILA MARCHA Powder,kg,-8.3333333333333E-6,0.01125,0.45833333333333,0.5,
Dhana Jiru,kg,4.4444444444444E-5,-0.026666666666667,2.2222222222222,0.5,
Jiru Powder,kg,1.9444444444444E-6,0.00070833333333333,0.15972222222222,0.05,
Mari Powder,kg,-5.5555555555556E-7,0.0020833333333333,0.097222222222222,0.1,38
Methi,kg,-5.5555555555556E-7,0.0040833333333333,0.097222222222222,0.1,48
Patra Masala,kg,-3.8888888888889E-6,0.0065833333333333,0.18055555555556,0.1,68
Aamli,kg,-2.7777777777778E-5,0.024166666666667,-0.13888888888889,0.25,
Suki Cha,kg,-2.7777777777778E-7,0.0020416666666667,0.048611111111111,0.05,
YELLOW COLOUR,kg,-1.6666666666667E-6,0.00125,-0.0083333333333333,0.05,79
SUGAR,kg,-0.00011111111111111,0.11666666666667,-0.55555555555556,1,26
KAJU TUKRA,kg,-5.5555555555556E-7,0.0040833333333333,0.097222222222222,0.1,83
Almond,kg,-5.5555555555556E-7,0.0040833333333333,0.097222222222222,0.1,136
Daraakh,kg,-5.5555555555556E-7,0.0040833333333333,0.097222222222222,0.1,
Oil,kg,-2.7777777777778E-5,0.40416666666667,4.8611111111111,1,28
Ghee,kg,-1.1111111111111E-5,0.061666666666667,1.9444444444444,1,29
MUTTON,kg,-2.7777777777778E-5,0.30416666666667,4.8611111111111,1,110
MUTTON Boneless,kg,-0.00011111111111111,0.21666666666667,-0.55555555555556,1,
ONION,kg,-2.7777777777778E-5,0.40416666666667,4.8611111111111,1,56
Tomatoes ,kg,-0.00011666666666667,0.2575,0.41666666666667,0.5,218
LILA MARCHA,kg,-1.9444444444444E-5,0.032916666666667,0.40277777777778,0.5,107
ADRAK,kg,-3.0555555555556E-5,0.044583333333333,0.34722222222222,0.5,97
Lasan,kg,-5.5555555555556E-5,0.058333333333333,-0.27777777777778,0.5,103
Fudino,kg,-1.1111111111111E-5,0.011666666666667,-0.055555555555556,0.5,225
Kothmir,kg,-1.1111111111111E-5,0.011666666666667,-0.055555555555556,0.5,217
Lilu Lasan,kg,-8.3333333333333E-6,0.01125,0.45833333333333,0.5,224
GAJAR,kg,-2.7777777777778E-5,0.024166666666667,-0.13888888888889,1,227
CABAGE,kg,-2.7777777777778E-5,0.024166666666667,-0.13888888888889,1,226
PATRA,Jodi,-1.1111111111111E-5,0.20166666666667,1.9444444444444,1,67
CHOLAI BHAJI,kg,0.00013888888888889,0.27916666666667,5.6944444444444,1,293
Milk,ltr.,-1.1111111111111E-5,0.081666666666667,1.9444444444444,1,220
DAHI,kg,-6.6666666666667E-5,0.11,1.6666666666667,1,230
